[gd_scene load_steps=3 format=3 uid="uid://b4ix2d6nu2uri"]

[ext_resource type="Script" path="res://File.gd" id="2"]
[ext_resource type="Texture2D" uid="uid://11m24g75a2mm" path="res://assets/sprites/file.png" id="2_1l1dd"]

[node name="Commit" type="Control"]
layout_mode = 3
anchors_preset = 0
script = ExtResource("2")

[node name="VBoxContainer" type="VBoxContainer" parent="."]
offset_right = 103.0
offset_bottom = 112.0
alignment = 1

[node name="TextureRect" type="TextureRect" parent="VBoxContainer"]
custom_minimum_size = Vector2(50, 50)
layout_mode = 2
size_flags_horizontal = 4
size_flags_vertical = 4
texture = ExtResource("2_1l1dd")
expand_mode = 1
stretch_mode = 4

[node name="FileName" type="ColorRect" parent="VBoxContainer"]
layout_mode = 2
size_flags_vertical = 3
color = Color(0.0941176, 0.0941176, 0.0941176, 1)

[node name="Label" type="Label" parent="VBoxContainer/FileName"]
layout_mode = 1
anchors_preset = 15
anchor_right = 1.0
anchor_bottom = 1.0
grow_horizontal = 2
grow_vertical = 2
text = "file001.js"
horizontal_alignment = 1
vertical_alignment = 1

[node name="Status" type="ColorRect" parent="VBoxContainer"]
layout_mode = 2
size_flags_vertical = 3
color = Color(0.0941176, 0.0941176, 0.0941176, 1)

[node name="Label" type="Label" parent="VBoxContainer/Status"]
layout_mode = 1
anchors_preset = 12
anchor_top = 1.0
anchor_right = 1.0
anchor_bottom = 1.0
offset_top = -35.0
grow_horizontal = 2
grow_vertical = 0
text = "New"
horizontal_alignment = 1
vertical_alignment = 1

[connection signal="gui_input" from="." to="." method="_on_Commit_gui_input"]
