[gd_scene load_steps=3 format=3 uid="uid://bxd6urlm35114"]

[ext_resource type="Script" path="res://CommitInfo.gd" id="1"]
[ext_resource type="PackedScene" uid="uid://4awwoet0slb6" path="res://File.tscn" id="2"]

[node name="CommitInfo" type="AcceptDialog"]
script = ExtResource("1")
file_resource = ExtResource("2")
file_container = NodePath("FileContainer")

[node name="FileContainer" type="GridContainer" parent="."]
anchors_preset = -1
anchor_top = 0.102
anchor_right = 1.0
anchor_bottom = 0.84
columns = 5
